simulation/qsim/project_1.msim.vcd
$comment
	File created using the following command:
		vcd file project_1.msim.vcd -direction
$end
$date
	Sat Jul 02 17:30:43 2022
$end
$version
	ModelSim Version 10.1d
$end
$timescale
	1ps
$end
$scope module serial_to_parallel_vlg_vec_tst $end
$var reg 1 ! clk $end
$var reg 1 " nclk $end
$var reg 1 # sEEG $end
$var wire 1 $ eegOut [3] $end
$var wire 1 % eegOut [2] $end
$var wire 1 & eegOut [1] $end
$var wire 1 ' eegOut [0] $end
$var wire 1 ( sampler $end
$scope module i1 $end
$var wire 1 ) gnd $end
$var wire 1 * vcc $end
$var wire 1 + unknown $end
$var tri1 1 , devclrn $end
$var tri1 1 - devpor $end
$var tri1 1 . devoe $end
$var wire 1 / nclk~input_o $end
$var wire 1 0 eegOut[0]~output_o $end
$var wire 1 1 eegOut[1]~output_o $end
$var wire 1 2 eegOut[2]~output_o $end
$var wire 1 3 eegOut[3]~output_o $end
$var wire 1 4 clk~input_o $end
$var wire 1 5 sEEG~input_o $end
$var wire 1 6 eegOut[0]~reg0_q $end
$var wire 1 7 eegOut[1]~reg0_q $end
$var wire 1 8 eegOut[2]~reg0_q $end
$var wire 1 9 eegOut[3]~reg0_q $end
$var wire 1 : temp_reg [3] $end
$var wire 1 ; temp_reg [2] $end
$var wire 1 < temp_reg [1] $end
$var wire 1 = temp_reg [0] $end
$var wire 1 > temp [3] $end
$var wire 1 ? temp [2] $end
$var wire 1 @ temp [1] $end
$var wire 1 A temp [0] $end
$upscope $end
$upscope $end
$enddefinitions $end
#0
$dumpvars
0!
x"
1#
0'
0&
0%
0$
x(
0)
1*
x+
1,
1-
1.
x/
00
01
02
03
04
15
06
07
08
09
0=
z<
z;
z:
0A
0@
0?
0>
$end
#15000
1!
14
0(
1>
#30000
0#
0!
05
04
1(
#45000
1!
14
0(
1?
0>
#60000
0!
04
1(
#75000
1!
14
0(
1@
0?
19
13
1$
#90000
1#
0!
15
04
1(
#105000
1!
14
0(
1A
0@
1>
09
18
03
12
0$
1%
#120000
0#
0!
05
04
1(
#135000
1!
14
0(
1=
0A
1?
0>
08
17
02
11
0%
1&
#150000
0!
04
1(
#165000
1!
14
0(
0=
1@
0?
19
07
16
13
01
10
1$
0&
1'
#180000
0!
04
1(
#195000
1!
14
0(
1A
0@
09
18
06
03
12
00
0$
1%
0'
#210000
0!
04
1(
#225000
1!
14
0(
1=
0A
08
17
02
11
0%
1&
#240000
0!
04
1(
#255000
1!
14
0(
0=
07
16
01
10
0&
1'
#270000
0!
04
1(
#285000
1!
14
0(
06
00
0'
#300000
0!
04
1(
#315000
1!
14
0(
#330000
0!
04
1(
#345000
1!
14
0(
#360000
0!
04
1(
#375000
1!
14
0(
#390000
0!
04
1(
#405000
1!
14
0(
#420000
0!
04
1(
#435000
1!
14
0(
#450000
0!
04
1(
#465000
1!
14
0(
